-49 15 -42 13 2 44 46 -12 48 32 -41 -5 14 42 41 -48 -14 -33 26 25 19 -1 -23 9 -3 8 -36 19 -25 4 43 31 -21 31 7 34 25 28 44 -35 5 49 29 16 1 14 15 -36 -1 -21 2 9 13 17
47 13 -14 32 -11 6 -19 34 -29 29 -22 13 -48 -26 0 -22 42 -31 -27 42 -13 33 -35 -15 -18 22 29 9 -28 -1 -21 -42 0 -13 11 -27 -27 6 -23 -3 -42 41 -34 7 -50 -30 21 6 14 46 17 6 -28 -44
22 -3 -26 6 32 -15 26 11 -18 7 -44 -33 -27 21 7 32 48 6 -13 -27 -47 8 50 -36 12 -19 23 -27 18 30 48 -24 47 -17 42 16 -44 -45 -25 45 -12 -23 -25 -37 -24
